How to be Happy
…
cor(happy_csv$`Happiness Score`, happy_csv$`Gov't Corruption Contribution`)

## [1] 0.4290797

Of every contributor to a nations overall happiness, it appears as though GDP Per Capita has the strongest, positive, linear relationship with any given nations overall happiness. While we now know that there is a positive correlation between GDP Per Capita and Happiness Score, we must now conduct a hypothesis test to see if there is indeed a relationship between the two.

Part 3: Hypothesis testing - When it comes to hypothesis testing, there are usually two hypotheses that we work with: the null hypothesis, and the alternative hypothesis. The null hypothesis generally states that there is no relationship between the two variables on which you are running the test, while the alternative hypothesis states the opposite. We will conduct a hypothesis test on GDP Per Capita to see if it is related to Happiness Score.

happy_sample <- happy_csv %>%
  sample_n(50)

happy_sample

## # A tibble: 50 x 9
##    Country     `Happiness Rank` `Happiness Score` `GDP Per Capita Contrib~
##    <chr>                  <int>             <dbl>                    <dbl>
##  1 Cameroon                 107              4.70                    0.564
##  2 Ivory Coast              128              4.18                    0.603
##  3 Nicaragua                 43              6.07                    0.737
##  4 Myanmar                  114              4.55                    0.367
##  5 Italy                     48              5.96                    1.40 
##  6 Bolivia                   58              5.82                    0.834
##  7 Russia                    49              5.96                    1.28 
##  8 Saudi Arab~               37              6.34                    1.53 
##  9 El Salvador               45              6.00                    0.910
## 10 South Korea               55              5.84                    1.40 
## # ... with 40 more rows, and 5 more variables: `Family
## #   Contribution` <dbl>, `Life Expectancy Contribution` <dbl>, `Freedom
## #   Contribution` <dbl>, `Generosity Contribution` <dbl>, `Gov't
## #   Corruption Contribution` <dbl>
…
